﻿1 1:276 2:98.73 3:100.00
1 1:279 2:98.76 3:100.00
1 1:175 2:61.60 3:100.00
1 1:245 2:63.19 3:100.00
1 1:336 2:82.73 3:99.98
1 1:312 2:81.98 3:100.00
1 1:434 2:65.98 3:100.00
1 1:458 2:75.10 3:100.00
1 1:208 2:85.91 3:100.00
1 1:174 2:81.16 3:99.80
1 1:19 2:1.40 3:100.00
1 1:609 2:88.86 3:99.99
1 1:207 2:84.53 3:99.92
1 1:28 2:7.37 3:100.00
1 1:276 2:98.73 3:100.00
1 1:279 2:98.76 3:100.00
1 1:175 2:61.60 3:100.00
1 1:245 2:63.19 3:100.00
1 1:336 2:82.73 3:99.98
0 1:2 2:0.06 3:100.00
0 1:2 2:0.14 3:100.00
0 1:2 2:0.03 3:100.00
0 1:10 2:0.41 3:100.00
0 1:14 2:0.78 3:100.00
0 1:49 2:4.86 3:99.90
0 1:117 2:17.39 3:100.00
0 1:110 2:15.35 3:99.96
0 1:23 2:3.08 3:100.00
1  1:175 2:84.98 3:99.85
1  1:208 2:75.15 3:99.83
1  1:239 2:66.71 3:96.62
1  1:228 2:75.06 3:99.84
1  1:227 2:85.64 3:99.91
1  1:380 2:68.89 3:99.89
1  1:190 2:62.78 3:99.92
1  1:197 2:69.45 3:99.92
1  1:224 2:73.33 3:99.97
1  1:192 2:54.31 3:99.86
1  1:178 2:49.63 3:99.96
1  1:342 2:46.25 3:99.99
1  1:374 2:50.70 3:99.99
1  1:245 2:71.17 3:99.66
1  1:437 2:98.63 3:100.00
1  1:443 2:58.20 3:99.99
1  1:361 2:52.01 3:99.98
1  1:449 2:76.43 3:99.99
1  1:187 2:67.28 3:99.94
1  1:357 2:74.51 3:99.51
1  1:263 2:70.72 3:99.98
1  1:210 2:41.74 3:99.97
1  1:186 2:65.87 3:99.95
0  1:75 2:16.76 3:99.95
0  1:79 2:11.80 3:100.00
0  1:62 2:9.94 3:100.00
0  1:80 2:11.24 3:100.00
0  1:57 2:8.75 3:100.00
0  1:78 2:10.99 3:100.00
0  1:69 2:8.36 3:100.00
0 1:7 2:0.55 3:100.00
0 1:14 2:0.93 3:100.00
0 1:7 2:0.47 3:100.00
0 1:9 2:0.41 3:100.00
0 1:8 2:0.31 3:100.00
0 1:4 2:0.15 3:100.00
0 1:2 2:0.04 3:100.00
0 1:5 2:0.17 3:100.00
0 1:43 2:5.17 3:100.00
0 1:10 2:0.51 3:100.00
0 1:35 2:3.70 3:100.00
0 1:28 2:1.93 3:100.00
0 1:8 2:0.31 3:100.00
0 1:34 2:10.38 3:100.00
0 1:36 2:4.35 3:100.00
0 1:13 2:0.53 3:100.00
0  1:78 2:10.66 3:100.00
0  1:78 2:12.41 3:100.00
0  1:66 2:9.29 3:100.00
0  1:58 2:11.12 3:100.00
0  1:55 2:8.15 3:100.00
0  1:73 2:10.70 3:100.00
0  1:77 2:9.36 3:100.00
0  1:65 2:10.72 3:100.00
0  1:64 2:9.30 3:100.00
0  1:59 2:9.53 3:100.00
0  1:73 2:9.21 3:100.00
0  1:62 2:8.54 3:100.00
0  1:72 2:11.33 3:100.00
0  1:64 2:8.38 3:100.00
0  1:71 2:10.48 3:100.00
0  1:69 2:9.48 3:100.00
0  1:16 2:3.55 3:100.00
0  1:77 2:8.55 3:100.00
0  1:71 2:12.14 3:100.00
0  1:67 2:9.46 3:100.00
0 1:6 2:0.32 3:100.00
0 1:6 2:0.30 3:100.00
0 1:2 2:0.03 3:100.00
0 1:3 2:0.15 3:100.00
0 1:2 2:0.02 3:100.00
0 1:9 2:0.39 3:100.00
0 1:7 2:0.32 3:100.00
0 1:14 2:1.41 3:100.00
0 1:9 2:0.52 3:100.00
0 1:23 2:4.36 3:99.76